TUD FOR WEEKDAYS
…
550

35.81

3.1 Monday TUD

Im trying to see the count for all the activities in the TUD

groupbymonAct <- monday %>%
  dplyr::group_by(Activity) %>%
  dplyr::summarize(count = n())
groupbymonAct

## # A tibble: 50 x 2
##    Activity                   count
##    <chr>                      <int>
##  1 Breakfast                     16
##  2 Charging mobile devices        1
##  3 Church                         6
##  4 Church (social activities)     2
##  5 Cooking                       31
##  6 Cooking (baby)                 1
##  7 Cooking (business)             3
##  8 Cooking (lunch)                1
##  9 Dinner                        36
## 10 Driving (church)               1
## #  with 40 more rows
…
tableAway

## # A tibble: 31 x 2
##    fixedHMS     n
##    <time>   <int>
##  1 05:30        2
##  2 06:00        2
##  3 06:30        3
##  4 07:00        1
##  5 07:30        2
##  6 08:00        4
##  7 08:30       24
##  8 09:00       30
##  9 09:30       31
## 10 10:00       31
## #  with 21 more rows
…
tableTransport

## # A tibble: 21 x 2
##    fixedHMS     n
##    <time>   <int>
##  1 05:00        1
##  2 07:00        2
##  3 07:30        6
##  4 08:00       17
##  5 08:30        6
##  6 10:00        1
##  7 15:00        1
##  8 15:30        2
##  9 16:00        3
## 10 16:30        5
## #  with 11 more rows
…
